pipelined.vcd
$date
	Fri Apr 27 23:45:27 2018
$end
$version
	Icarus Verilog
$end
$timescale
	1ps
$end
$scope module cpu_TB $end
$var event 1 ! testbench_finish $end
$var wire 16 " d_data [15:0] $end
$var wire 16 # output_port [15:0] $end
$var wire 16 $ num_inst [15:0] $end
$var wire 1 % is_halted $end
$var wire 1 & i_writeM $end
$var wire 1 ' i_readM $end
$var wire 16 ( i_data [15:0] $end
$var wire 16 ) i_address [15:0] $end
$var wire 1 * d_writeM $end
$var wire 1 + d_readM $end
$var wire 16 , d_address [15:0] $end
$var reg 16 - Passed [15:0] $end
$var reg 1 . clk $end
$var reg 16 / i [15:0] $end
$var reg 16 0 num_clock [15:0] $end
$var reg 1 1 reset_n $end
$scope module NUUT $end
$var wire 1 2 clk $end
$var wire 16 3 d_data [15:0] $end
$var wire 1 1 reset_n $end
$var wire 1 & i_writeM $end
$var wire 1 ' i_readM $end
$var wire 16 4 i_data [15:0] $end
$var wire 16 5 i_address [15:0] $end
$var wire 1 * d_writeM $end
$var wire 1 + d_readM $end
$var wire 16 6 d_address [15:0] $end
$var reg 16 7 d_outputData [15:0] $end
$var reg 16 8 i_outputData [15:0] $end
$upscope $end
$scope module UUT $end
$var wire 1 . clk $end
$var wire 16 9 d_data [15:0] $end
$var wire 16 : i_data [15:0] $end
$var wire 1 ; input_ready $end
$var wire 1 1 reset_n $end
$var wire 2 < reg_write_src [1:0] $end
$var wire 1 = reg_write $end
$var wire 2 > reg_dst [1:0] $end
$var wire 1 ? pc_write_cond $end
$var wire 1 @ pc_write $end
$var wire 2 A pc_src [1:0] $end
$var wire 1 B output_write $end
$var wire 16 C output_port [15:0] $end
$var wire 4 D opcode [3:0] $end
$var wire 16 E num_inst [15:0] $end
$var wire 1 % is_halted $end
$var wire 1 F ir_write $end
$var wire 1 & i_writeM $end
$var wire 1 ' i_readM $end
$var wire 1 G i_or_d $end
$var wire 16 H i_address [15:0] $end
$var wire 6 I func_code [5:0] $end
$var wire 1 * d_writeM $end
$var wire 1 + d_readM $end
$var wire 16 J d_address [15:0] $end
$var wire 1 K alu_src_swap $end
$var wire 2 L alu_src_b [1:0] $end
$var wire 1 M alu_src_a $end
$var wire 4 N alu_op [3:0] $end
$scope module Control $end
$var wire 1 . clk $end
$var wire 1 O isHLT $end
$var wire 1 P isTCP $end
$var wire 1 % is_halted $end
$var wire 1 1 reset_n $end
$var wire 4 Q opcode [3:0] $end
$var wire 6 R func_code [5:0] $end
$var wire 4 S alu_op [3:0] $end
$var reg 1 T ALUMode $end
$var reg 1 M alu_src_a $end
$var reg 2 U alu_src_b [1:0] $end
$var reg 1 K alu_src_swap $end
$var reg 1 V complete $end
$var reg 1 + d_mem_read $end
$var reg 1 * d_mem_write $end
$var reg 1 ' i_mem_read $end
$var reg 1 & i_mem_write $end
$var reg 1 G i_or_d $end
$var reg 3 W instType [2:0] $end
$var reg 1 F ir_write $end
$var reg 3 X mPC [2:0] $end
$var reg 3 Y nmPC [2:0] $end
$var reg 16 Z num_inst [15:0] $end
$var reg 1 B output_write $end
$var reg 2 [ pc_src [1:0] $end
$var reg 1 @ pc_write $end
$var reg 1 ? pc_write_cond $end
$var reg 2 \ reg_dst [1:0] $end
$var reg 1 = reg_write $end
$var reg 2 ] reg_write_src [1:0] $end
$scope module ALUControl $end
$var wire 1 T ALUMode $end
$var wire 4 ^ opcode [3:0] $end
$var wire 6 _ func_code [5:0] $end
$var reg 4 ` alu_op [3:0] $end
$upscope $end
$upscope $end
$scope module DP $end
$var wire 2 a addr1 [1:0] $end
$var wire 2 b addr2 [1:0] $end
$var wire 4 c alu_op [3:0] $end
$var wire 1 M alu_src_a $end
$var wire 2 d alu_src_b [1:0] $end
$var wire 1 K alu_src_swap $end
$var wire 1 . clk $end
$var wire 16 e d_address [15:0] $end
$var wire 16 f d_data [15:0] $end
$var wire 1 * d_mem_write $end
$var wire 16 g i_address [15:0] $end
$var wire 16 h i_data [15:0] $end
$var wire 1 & i_mem_write $end
$var wire 1 G i_or_d $end
$var wire 1 ; input_ready $end
$var wire 1 F ir_write $end
$var wire 1 B output_write $end
$var wire 2 i pc_src [1:0] $end
$var wire 1 @ pc_write $end
$var wire 1 ? pc_write_cond $end
$var wire 2 j reg_dst [1:0] $end
$var wire 1 = reg_write $end
$var wire 2 k reg_write_src [1:0] $end
$var wire 1 1 reset_n $end
$var wire 16 l writeData [15:0] $end
$var wire 12 m target_addr [11:0] $end
$var wire 2 n rt [1:0] $end
$var wire 2 o rs [1:0] $end
$var wire 2 p rd [1:0] $end
$var wire 4 q opcode [3:0] $end
$var wire 8 r imm [7:0] $end
$var wire 6 s func_code [5:0] $end
$var wire 16 t data2 [15:0] $end
$var wire 16 u data1 [15:0] $end
$var wire 16 v alu_temp_2 [15:0] $end
$var wire 16 w alu_temp_1 [15:0] $end
$var wire 16 x alu_result [15:0] $end
$var wire 16 y alu_operand_2 [15:0] $end
$var wire 16 z alu_operand_1 [15:0] $end
$var wire 2 { addr3 [1:0] $end
$var reg 16 | A_ex [15:0] $end
$var reg 16 } B_ex [15:0] $end
$var reg 16 ~ IR [15:0] $end
$var reg 16 !" MDR [15:0] $end
$var reg 16 "" PC [15:0] $end
$var reg 16 #" alu_out [15:0] $end
$var reg 16 $" num_inst [15:0] $end
$var reg 16 %" output_port [15:0] $end
$scope module alu $end
$var wire 16 &" A [15:0] $end
$var wire 16 '" B [15:0] $end
$var wire 1 (" Cin $end
$var wire 4 )" OP [3:0] $end
$var reg 16 *" C [15:0] $end
$var reg 1 +" Cout $end
$var reg 17 ," res [16:0] $end
$upscope $end
$scope module rf $end
$var wire 2 -" addr1 [1:0] $end
$var wire 2 ." addr2 [1:0] $end
$var wire 2 /" addr3 [1:0] $end
$var wire 1 . clk $end
$var wire 16 0" data1 [15:0] $end
$var wire 16 1" data2 [15:0] $end
$var wire 16 2" data3 [15:0] $end
$var wire 1 1 reset_n $end
$var wire 1 = write $end
$upscope $end
$upscope $end
$upscope $end
$upscope $end
$enddefinitions $end
#0
$dumpvars
bx 2"
bx 1"
bx 0"
bx /"
bx ."
bx -"
bx ,"
1+"
b1111111111111111 *"
bx )"
0("
bx '"
bx &"
bx %"
bx $"
bx #"
bx ""
bx !"
bx ~
bx }
bx |
bx {
bx z
bx y
b1111111111111111 x
bx w
bx v
bx u
bx t
bx s
bx r
bx q
bx p
bx o
bx n
bx m
bx l
bx k
bx j
bx i
bx h
bx g
bx f
bx e
bx d
bx c
bx b
bx a
bx `
bx _
bx ^
bx ]
bx \
bx [
bx Z
bx Y
bx X
bx W
xV
bx U
xT
bx S
bx R
bx Q
xP
xO
bx N
xM
bx L
xK
bx J
bx I
bx H
xG
xF
bx E
bx D
bx C
xB
bx A
x@
x?
bx >
x=
bx <
z;
bx :
bx 9
bx 8
bx 7
bx 6
bx 5
bx 4
bx 3
12
11
bx 0
bx /
0.
b0 -
bx ,
x+
x*
bx )
bx (
x'
x&
x%
bx $
bx #
bx "
1!
$end
#25000
01
#50000
b1 ,"
b1 y
b1 '"
b0 z
b0 &"
b1 x
b1 *"
0+"
b1 v
b0 w
bz "
bz 3
bz 9
bz f
0%
0O
0P
b11 W
b0 N
b0 S
b0 `
b0 c
b0 )"
b0 {
b0 /"
b0 L
b0 U
b0 d
0M
0V
0B
0K
0T
0=
b1 >
b1 \
b1 j
b0 A
b0 [
b0 i
0?
1@
1F
0*
0&
0+
1'
0G
b1 Y
b0 D
b0 Q
b0 ^
b0 q
b0 I
b0 R
b0 _
b0 s
b0 u
b0 0"
b0 a
b0 -"
b0 o
b0 t
b0 1"
b0 b
b0 ."
b0 n
b0 p
b0 r
b0 m
b0 X
b0 $
b0 E
b0 Z
bz #
bz C
bz %"
b0 ~
b0 )
b0 5
b0 H
b0 g
b0 ""
b0 0
02
1.
#100000
12
0.
#150000
02
1.
#175000
11
#200000
b1001000000100011 (
b1001000000100011 4
b1001000000100011 :
b1001000000100011 h
b1001000000100011 8
12
0.
#250000
b100011 y
b100011 '"
b100100 x
b100100 *"
b100100 ,"
b1 A
b1 [
b1 i
1V
b100011 v
bz (
bz 4
bz :
bz h
b1 z
b1 &"
b100 W
b10 L
b10 U
b10 d
1@
0F
0'
b0 Y
b1 w
b1001 D
b1001 Q
b1001 ^
b1001 q
b100011 I
b100011 R
b100011 _
b100011 s
b100011 r
b100011 m
b1 X
b1 )
b1 5
b1 H
b1 g
b1 ""
bz !"
b1001000000100011 ~
b0 }
b0 |
b1 ,
b1 6
b1 J
b1 e
b1 #"
b111000 /
b1 0
02
1.
#300000
12
0.
#350000
b1 y
b1 '"
b100011 z
b100011 &"
b1 v
b1001000000100011 (
b1001000000100011 4
b1001000000100011 :
b1001000000100011 h
b100011 w
b0 L
b0 U
b0 d
1F
1'
0V
b0 A
b0 [
b0 i
1@
b1 Y
b100011 )
b100011 5
b100011 H
b100011 g
b100011 ""
b100100 ,
b100100 6
b100100 J
b100100 e
b100100 #"
b1 $
b1 E
b1 Z
b0 X
b111000 /
b10 0
02
1.
#400000
b110000000000000 (
b110000000000000 4
b110000000000000 :
b110000000000000 h
b110000000000000 8
12
0.
#450000
b0 l
b0 2"
b0 y
b0 '"
b100100 x
b100100 *"
b100100 ,"
b0 >
b0 \
b0 j
b0 <
b0 ]
b0 k
b0 v
bz (
bz 4
bz :
bz h
b100100 z
b100100 &"
b1 W
b0 A
b0 [
b0 i
0V
b10 L
b10 U
b10 d
0@
0F
0'
b10 Y
b100100 w
b110 D
b110 Q
b110 ^
b110 q
b0 I
b0 R
b0 _
b0 s
b0 r
b0 m
b1 X
b100100 )
b100100 5
b100100 H
b100100 g
b100100 ""
b110000000000000 ~
b111000 /
b11 0
02
1.
#500000
12
0.
#550000
b0 x
b0 *"
b0 ,"
b0 z
b0 &"
b0 w
1M
b0 >
b0 \
b0 j
b11 Y
b10 X
b111000 /
b100 0
02
1.
#600000
12
0.
#650000
bx "
bx 3
bx 9
bx f
1+
1G
b0 >
b0 \
b0 j
b100 Y
b11 X
b0 ,
b0 6
b0 J
b0 e
b0 #"
b111000 /
b101 0
02
1.
#700000
b1001000000100011 "
b1001000000100011 3
b1001000000100011 9
b1001000000100011 f
b1001000000100011 7
12
0.
#750000
bz "
bz 3
bz 9
bz f
1=
1V
b0 >
b0 \
b0 j
0+
0G
b0 Y
b1001000000100011 !"
b100 X
b111000 /
b110 0
02
1.
#800000
12
0.
#850000
b100101 x
b100101 *"
b100101 ,"
b1 y
b1 '"
b100100 z
b100100 &"
b1 v
b100100 w
b110000000000000 (
b110000000000000 4
b110000000000000 :
b110000000000000 h
1@
b0 L
b0 U
b0 d
0M
1F
1'
0V
0=
b0 >
b0 \
b0 j
b1 Y
b10 $
b10 E
b10 Z
b0 X
bz !"
b111000 /
b111 0
02
1.
#900000
b1111000000011100 (
b1111000000011100 4
b1111000000011100 :
b1111000000011100 h
b1111000000011100 8
12
0.
#950000
b1000001 x
b1000001 *"
b1000001 ,"
1B
1V
b11100 y
b11100 '"
b100101 z
b100101 &"
b101 W
b10 <
b10 ]
b10 k
bz l
bz 2"
b11100 v
bz (
bz 4
bz :
bz h
b100101 w
b1111 D
b1111 Q
b1111 ^
b1111 q
b11100 I
b11100 R
b11100 _
b11100 s
b11100 r
b11100 m
b10 L
b10 U
b10 d
b1 >
b1 \
b1 j
0@
0F
0'
b0 Y
b100101 )
b100101 5
b100101 H
b100101 g
b100101 ""
b1111000000011100 ~
b100101 ,
b100101 6
b100101 J
b100101 e
b100101 #"
b1 X
b111000 /
b1000 0
02
1.
#1000000
12
0.
#1050000
b100110 x
b100110 *"
b100110 ,"
b1 y
b1 '"
b1 v
b1111000000011100 (
b1111000000011100 4
b1111000000011100 :
b1111000000011100 h
1@
b0 L
b0 U
b0 d
1F
1'
0V
0B
b1 Y
b11 $
b11 E
b11 Z
b0 X
b0 #
b0 C
b0 %"
b1000001 ,
b1000001 6
b1000001 J
b1000001 e
b1000001 #"
b111000 /
b1001 0
02
1.
#1100000
b110000100000000 (
b110000100000000 4
b110000100000000 :
b110000100000000 h
b110000100000000 8
12
0.
#1150000
b1 {
b1 /"
b0 l
b0 2"
b0 >
b0 \
b0 j
b0 <
b0 ]
b0 k
b0 y
b0 '"
b100110 z
b100110 &"
b1 W
b0 v
bz (
bz 4
bz :
bz h
b100110 w
b110 D
b110 Q
b110 ^
b110 q
b0 I
b0 R
b0 _
b0 s
b1 b
b1 ."
b1 n
b0 r
b100000000 m
0B
0V
b10 L
b10 U
b10 d
0@
0F
0'
b10 Y
b100110 )
b100110 5
b100110 H
b100110 g
b100110 ""
b110000100000000 ~
b100110 ,
b100110 6
b100110 J
b100110 e
b100110 #"
b1 X
b111000 /
b1010 0
02
1.
#1200000
12
0.
#1250000
b0 x
b0 *"
b0 ,"
b0 z
b0 &"
b0 w
1M
b0 >
b0 \
b0 j
b11 Y
b10 X
b111000 /
b1011 0
02
1.
#1300000
12
0.
#1350000
b1001000000100011 "
b1001000000100011 3
b1001000000100011 9
b1001000000100011 f
1+
1G
b0 >
b0 \
b0 j
b100 Y
b0 ,
b0 6
b0 J
b0 e
b0 #"
b11 X
b111000 /
b1100 0
02
1.
#1400000
12
0.
#1450000
bz "
bz 3
bz 9
bz f
1=
1V
b0 >
b0 \
b0 j
0+
0G
b0 Y
b100 X
b1001000000100011 !"
b111000 /
b1101 0
02
1.
#1500000
12
0.
#1550000
b100111 x
b100111 *"
b100111 ,"
b1 y
b1 '"
b100110 z
b100110 &"
b1 v
b100110 w
b110000100000000 (
b110000100000000 4
b110000100000000 :
b110000100000000 h
1@
b0 L
b0 U
b0 d
0M
1F
1'
0V
0=
b0 >
b0 \
b0 j
b1 Y
bz !"
b100 $
b100 E
b100 Z
b0 X
b111000 /
b1110 0
02
1.
#1600000
b1111010000011100 (
b1111010000011100 4
b1111010000011100 :
b1111010000011100 h
b1111010000011100 8
12
0.
#1650000
b11100 y
b11100 '"
b1000011 x
b1000011 *"
b1000011 ,"
1B
1V
b11100 v
bz (
bz 4
bz :
bz h
b100111 z
b100111 &"
b101 W
b0 {
b0 /"
bz l
bz 2"
b10 <
b10 ]
b10 k
b10 L
b10 U
b10 d
b1 >
b1 \
b1 j
0@
0F
0'
b0 Y
b100111 w
b1111 D
b1111 Q
b1111 ^
b1111 q
b11100 I
b11100 R
b11100 _
b11100 s
b1 a
b1 -"
b1 o
b0 b
b0 ."
b0 n
b11100 r
b10000011100 m
b1 X
b100111 )
b100111 5
b100111 H
b100111 g
b100111 ""
b1111010000011100 ~
b100111 ,
b100111 6
b100111 J
b100111 e
b100111 #"
b111000 /
b1111 0
02
1.
#1700000
12
0.
#1750000
b101000 x
b101000 *"
b101000 ,"
b1 y
b1 '"
b1 v
b1111010000011100 (
b1111010000011100 4
b1111010000011100 :
b1111010000011100 h
1@
b0 L
b0 U
b0 d
1F
1'
0V
0B
b1 Y
b1000011 ,
b1000011 6
b1000011 J
b1000011 e
b1000011 #"
b101 $
b101 E
b101 Z
b0 X
b111000 /
b10000 0
02
1.
#1800000
b110001000000000 (
b110001000000000 4
b110001000000000 :
b110001000000000 h
b110001000000000 8
12
0.
#1850000
b10 {
b10 /"
b0 l
b0 2"
b0 y
b0 '"
b101000 x
b101000 *"
b101000 ,"
b0 >
b0 \
b0 j
b0 <
b0 ]
b0 k
b0 v
bz (
bz 4
bz :
bz h
b101000 z
b101000 &"
b1 W
0B
0V
b10 L
b10 U
b10 d
0@
0F
0'
b10 Y
b101000 w
b110 D
b110 Q
b110 ^
b110 q
b0 I
b0 R
b0 _
b0 s
b0 a
b0 -"
b0 o
b10 b
b10 ."
b10 n
b0 r
b1000000000 m
b1 X
b101000 )
b101000 5
b101000 H
b101000 g
b101000 ""
b110001000000000 ~
b101000 ,
b101000 6
b101000 J
b101000 e
b101000 #"
b111000 /
b10001 0
02
1.
#1900000
12
0.
#1950000
b0 x
b0 *"
b0 ,"
b0 z
b0 &"
b0 w
1M
b0 >
b0 \
b0 j
b11 Y
b10 X
b111000 /
b10010 0
02
1.
#2000000
12
0.
#2050000
b1001000000100011 "
b1001000000100011 3
b1001000000100011 9
b1001000000100011 f
1+
1G
b0 >
b0 \
b0 j
b100 Y
b11 X
b0 ,
b0 6
b0 J
b0 e
b0 #"
b111000 /
b10011 0
02
1.
#2100000
12
0.
#2150000
bz "
bz 3
bz 9
bz f
1=
1V
b0 >
b0 \
b0 j
0+
0G
b0 Y
b1001000000100011 !"
b100 X
b111000 /
b10100 0
02
1.
#2200000
12
0.
#2250000
b101001 x
b101001 *"
b101001 ,"
b1 y
b1 '"
b101000 z
b101000 &"
b1 v
b101000 w
b110001000000000 (
b110001000000000 4
b110001000000000 :
b110001000000000 h
1@
b0 L
b0 U
b0 d
0M
1F
1'
0V
0=
b0 >
b0 \
b0 j
b1 Y
b110 $
b110 E
b110 Z
b0 X
bz !"
b111000 /
b10101 0
02
1.
#2300000
b1111100000011100 (
b1111100000011100 4
b1111100000011100 :
b1111100000011100 h
b1111100000011100 8
12
0.
#2350000
b1000101 x
b1000101 *"
b1000101 ,"
1B
1V
b11100 y
b11100 '"
b101001 z
b101001 &"
b101 W
b10 <
b10 ]
b10 k
bz l
bz 2"
b11100 v
b0 {
b0 /"
bz (
bz 4
bz :
bz h
b101001 w
b1111 D
b1111 Q
b1111 ^
b1111 q
b11100 I
b11100 R
b11100 _
b11100 s
b10 a
b10 -"
b10 o
b0 b
b0 ."
b0 n
b11100 r
b100000011100 m
b10 L
b10 U
b10 d
b1 >
b1 \
b1 j
0@
0F
0'
b0 Y
b101001 )
b101001 5
b101001 H
b101001 g
b101001 ""
b1111100000011100 ~
b101001 ,
b101001 6
b101001 J
b101001 e
b101001 #"
b1 X
b111000 /
b10110 0
02
1.
#2400000
12
0.
#2450000
b101010 x
b101010 *"
b101010 ,"
b1 y
b1 '"
b1 v
b1111100000011100 (
b1111100000011100 4
b1111100000011100 :
b1111100000011100 h
1@
b0 L
b0 U
b0 d
1F
1'
0V
0B
b1 Y
b111 $
b111 E
b111 Z
b0 X
b1000101 ,
b1000101 6
b1000101 J
b1000101 e
b1000101 #"
b111000 /
b10111 0
02
1.
#2500000
b110001100000000 (
b110001100000000 4
b110001100000000 :
b110001100000000 h
b110001100000000 8
12
0.
#2550000
b11 {
b11 /"
b0 l
b0 2"
b0 >
b0 \
b0 j
b0 <
b0 ]
b0 k
b0 y
b0 '"
b101010 z
b101010 &"
b1 W
b0 v
bz (
bz 4
bz :
bz h
b101010 w
b110 D
b110 Q
b110 ^
b110 q
b0 I
b0 R
b0 _
b0 s
b0 a
b0 -"
b0 o
b11 b
b11 ."
b11 n
b0 r
b1100000000 m
0B
0V
b10 L
b10 U
b10 d
0@
0F
0'
b10 Y
b101010 )
b101010 5
b101010 H
b101010 g
b101010 ""
b110001100000000 ~
b101010 ,
b101010 6
b101010 J
b101010 e
b101010 #"
b1 X
b111000 /
b11000 0
02
1.
#2600000
12
0.
#2650000
b0 x
b0 *"
b0 ,"
b0 z
b0 &"
b0 w
1M
b0 >
b0 \
b0 j
b11 Y
b10 X
b111000 /
b11001 0
02
1.
#2700000
12
0.
#2750000
b1001000000100011 "
b1001000000100011 3
b1001000000100011 9
b1001000000100011 f
1+
1G
b0 >
b0 \
b0 j
b100 Y
b0 ,
b0 6
b0 J
b0 e
b0 #"
b11 X
b111000 /
b11010 0
02
1.
#2800000
12
0.
#2850000
bz "
bz 3
bz 9
bz f
1=
1V
b0 >
b0 \
b0 j
0+
0G
b0 Y
b100 X
b1001000000100011 !"
b111000 /
b11011 0
02
1.
#2900000
12
0.
#2950000
b101011 x
b101011 *"
b101011 ,"
b1 y
b1 '"
b101010 z
b101010 &"
b1 v
b101010 w
b110001100000000 (
b110001100000000 4
b110001100000000 :
b110001100000000 h
1@
b0 L
b0 U
b0 d
0M
1F
1'
0V
0=
b0 >
b0 \
b0 j
b1 Y
bz !"
b1000 $
b1000 E
b1000 Z
b0 X
b111000 /
b11100 0
02
1.
#3000000
b1111110000011100 (
b1111110000011100 4
b1111110000011100 :
b1111110000011100 h
b1111110000011100 8
12
0.
#3050000
b11100 y
b11100 '"
b1000111 x
b1000111 *"
b1000111 ,"
1B
1V
b11100 v
bz (
bz 4
bz :
bz h
b101011 z
b101011 &"
b101 W
b0 {
b0 /"
bz l
bz 2"
b10 <
b10 ]
b10 k
b10 L
b10 U
b10 d
b1 >
b1 \
b1 j
0@
0F
0'
b0 Y
b101011 w
b1111 D
b1111 Q
b1111 ^
b1111 q
b11100 I
b11100 R
b11100 _
b11100 s
b11 a
b11 -"
b11 o
b0 b
b0 ."
b0 n
b11100 r
b110000011100 m
b1 X
b101011 )
b101011 5
b101011 H
b101011 g
b101011 ""
b1111110000011100 ~
b101011 ,
b101011 6
b101011 J
b101011 e
b101011 #"
b111000 /
b11101 0
02
1.
#3100000
12
0.
#3150000
b101100 x
b101100 *"
b101100 ,"
b1 y
b1 '"
b1 v
b1111110000011100 (
b1111110000011100 4
b1111110000011100 :
b1111110000011100 h
1@
b0 L
b0 U
b0 d
1F
1'
0V
0B
b1 Y
b1000111 ,
b1000111 6
b1000111 J
b1000111 e
b1000111 #"
b1001 $
b1001 E
b1001 Z
b0 X
b111000 /
b11110 0
02
1.
#3200000
b100010000000001 (
b100010000000001 4
b100010000000001 :
b100010000000001 h
b100010000000001 8
12
0.
#3250000
b101100 l
b101100 2"
b1 y
b1 '"
b101101 x
b101101 *"
b101101 ,"
b0 >
b0 \
b0 j
b1 <
b1 ]
b1 k
b1 v
bz (
bz 4
bz :
bz h
b101100 z
b101100 &"
b0 W
0B
0V
b10 L
b10 U
b10 d
0@
0F
0'
b10 Y
b101100 w
b100 D
b100 Q
b100 ^
b100 q
b1 I
b1 R
b1 _
b1 s
b1 a
b1 -"
b1 o
b1 r
b10000000001 m
b1 X
b101100 )
b101100 5
b101100 H
b101100 g
b101100 ""
b100010000000001 ~
b101100 ,
b101100 6
b101100 J
b101100 e
b101100 #"
b111000 /
b11111 0
02
1.
#3300000
12
0.
#3350000
b1 x
b1 *"
b1 ,"
b0 z
b0 &"
b101101 l
b101101 2"
b0 w
1M
1T
b0 >
b0 \
b0 j
b100 Y
b101101 ,
b101101 6
b101101 J
b101101 e
b101101 #"
b10 X
b111000 /
b100000 0
02
1.
#3400000
12
0.
#3450000
b1 l
b1 2"
1=
1V
0T
b0 >
b0 \
b0 j
b0 Y
b100 X
b1 ,
b1 6
b1 J
b1 e
b1 #"
b111000 /
b100001 0
02
1.
#3500000
12
0.
#3550000
b101101 x
b101101 *"
b101101 ,"
b101100 z
b101100 &"
b101100 w
b100010000000001 (
b100010000000001 4
b100010000000001 :
b100010000000001 h
1@
b0 L
b0 U
b0 d
0M
1F
1'
0V
0=
b0 >
b0 \
b0 j
b1 Y
b1 t
b1 1"
b1010 $
b1010 E
b1010 Z
b0 X
b111000 /
b100010 0
02
1.
#3600000
b1111000000011100 (
b1111000000011100 4
b1111000000011100 :
b1111000000011100 h
b1111000000011100 8
12
0.
#3650000
b11100 y
b11100 '"
b1001001 x
b1001001 *"
b1001001 ,"
1B
1V
b11100 v
bz (
bz 4
bz :
bz h
b101101 z
b101101 &"
b101 W
b101101 l
b101101 2"
b10 L
b10 U
b10 d
b1 >
b1 \
b1 j
0@
0F
0'
b0 Y
b101101 w
b1111 D
b1111 Q
b1111 ^
b1111 q
b11100 I
b11100 R
b11100 _
b11100 s
b1 u
b1 0"
b0 a
b0 -"
b0 o
b11100 r
b11100 m
b1 X
b101101 )
b101101 5
b101101 H
b101101 g
b101101 ""
b1111000000011100 ~
b1 }
b101101 ,
b101101 6
b101101 J
b101101 e
b101101 #"
b111000 /
b100011 0
02
1.
#3700000
12
0.
#3750000
b101110 x
b101110 *"
b101110 ,"
b1 y
b1 '"
b1001001 l
b1001001 2"
b1 v
b1111000000011100 (
b1111000000011100 4
b1111000000011100 :
b1111000000011100 h
1@
b0 L
b0 U
b0 d
1F
1'
0V
0B
b1 Y
b1 #
b1 C
b1 %"
b1 |
b1001001 ,
b1001001 6
b1001001 J
b1001001 e
b1001001 #"
b1011 $
b1011 E
b1011 Z
b0 X
b111000 /
b100100 0
02
1.
#3800000
b100000000000001 (
b100000000000001 4
b100000000000001 :
b100000000000001 h
b100000000000001 8
12
0.
#3850000
b1 y
b1 '"
b101111 x
b101111 *"
b101111 ,"
b0 >
b0 \
b0 j
b1 v
bz (
bz 4
bz :
bz h
b101110 z
b101110 &"
b0 W
b101110 l
b101110 2"
0B
0V
b10 L
b10 U
b10 d
0@
0F
0'
b10 Y
b101110 w
b100 D
b100 Q
b100 ^
b100 q
b1 I
b1 R
b1 _
b1 s
b1 r
b1 m
b1 X
b101110 )
b101110 5
b101110 H
b101110 g
b101110 ""
b100000000000001 ~
b101110 ,
b101110 6
b101110 J
b101110 e
b101110 #"
b111000 /
b100101 0
02
1.
#3900000
12
0.
#3950000
b10 x
b10 *"
b10 ,"
b1 z
b1 &"
b101111 l
b101111 2"
b1 w
1M
1T
b0 >
b0 \
b0 j
b100 Y
b101111 ,
b101111 6
b101111 J
b101111 e
b101111 #"
b10 X
b111000 /
b100110 0
02
1.
#4000000
12
0.
#4050000
b10 l
b10 2"
1=
1V
0T
b0 >
b0 \
b0 j
b0 Y
b100 X
b10 ,
b10 6
b10 J
b10 e
b10 #"
b111000 /
b100111 0
02
1.
#4100000
12
0.
#4150000
b101111 x
b101111 *"
b101111 ,"
b101110 z
b101110 &"
b101110 w
b100000000000001 (
b100000000000001 4
b100000000000001 :
b100000000000001 h
1@
b0 L
b0 U
b0 d
0M
1F
1'
0V
0=
b0 >
b0 \
b0 j
b1 Y
b10 u
b10 0"
b10 t
b10 1"
b1100 $
b1100 E
b1100 Z
b0 X
b111000 /
b101000 0
02
1.
#4200000
b1111000000011100 (
b1111000000011100 4
b1111000000011100 :
b1111000000011100 h
b1111000000011100 8
12
0.
#4250000
b11100 y
b11100 '"
b1001011 x
b1001011 *"
b1001011 ,"
1B
1V
b11100 v
bz (
bz 4
bz :
bz h
b101111 z
b101111 &"
b101 W
b101111 l
b101111 2"
b10 L
b10 U
b10 d
b1 >
b1 \
b1 j
0@
0F
0'
b0 Y
b101111 w
b1111 D
b1111 Q
b1111 ^
b1111 q
b11100 I
b11100 R
b11100 _
b11100 s
b11100 r
b11100 m
b1 X
b101111 )
b101111 5
b101111 H
b101111 g
b101111 ""
b1111000000011100 ~
b10 }
b10 |
b101111 ,
b101111 6
b101111 J
b101111 e
b101111 #"
b111000 /
b101001 0
02
1.
#4300000
12
0.
#4350000
b110000 x
b110000 *"
b110000 ,"
b1 y
b1 '"
b1001011 l
b1001011 2"
b1 v
b1111000000011100 (
b1111000000011100 4
b1111000000011100 :
b1111000000011100 h
1@
b0 L
b0 U
b0 d
1F
1'
0V
0B
b1 Y
b10 #
b10 C
b10 %"
b1001011 ,
b1001011 6
b1001011 J
b1001011 e
b1001011 #"
b1101 $
b1101 E
b1101 Z
b0 X
b111000 /
b101010 0
02
1.
#4400000
b101100100000001 (
b101100100000001 4
b101100100000001 :
b101100100000001 h
b101100100000001 8
12
0.
#4450000
b1 {
b1 /"
b1 y
b1 '"
b110001 x
b110001 *"
b110001 ,"
b0 >
b0 \
b0 j
b1 v
bz (
bz 4
bz :
bz h
b110000 z
b110000 &"
b0 W
b110000 l
b110000 2"
0B
0V
b10 L
b10 U
b10 d
0@
0F
0'
b10 Y
b110000 w
b101 D
b101 Q
b101 ^
b101 q
b1 I
b1 R
b1 _
b1 s
b0 u
b0 0"
b10 a
b10 -"
b10 o
b0 t
b0 1"
b1 b
b1 ."
b1 n
b1 r
b100100000001 m
b1 X
b110000 )
b110000 5
b110000 H
b110000 g
b110000 ""
b101100100000001 ~
b110000 ,
b110000 6
b110000 J
b110000 e
b110000 #"
b111000 /
b101011 0
02
1.
#4500000
12
0.
#4550000
b1 x
b1 *"
b0 z
b0 &"
b110001 l
b110001 2"
b0 w
b1000 N
b1000 S
b1000 `
b1000 c
b1000 )"
1M
1T
b0 >
b0 \
b0 j
b100 Y
b0 }
b0 |
b110001 ,
b110001 6
b110001 J
b110001 e
b110001 #"
b10 X
b111000 /
b101100 0
02
1.
#4600000
12
0.
#4650000
b1 ,"
b0 N
b0 S
b0 `
b0 c
b0 )"
b1 l
b1 2"
1=
1V
0T
b0 >
b0 \
b0 j
b0 Y
b100 X
b1 ,
b1 6
b1 J
b1 e
b1 #"
b111000 /
b101101 0
02
1.
#4700000
12
0.
#4750000
b110001 x
b110001 *"
b110001 ,"
b110000 z
b110000 &"
b110000 w
b101100100000001 (
b101100100000001 4
b101100100000001 :
b101100100000001 h
1@
b0 L
b0 U
b0 d
0M
1F
1'
0V
0=
b0 >
b0 \
b0 j
b1 Y
b1 t
b1 1"
b1110 $
b1110 E
b1110 Z
b0 X
b111000 /
b101110 0
02
1.
#4800000
b1111010000011100 (
b1111010000011100 4
b1111010000011100 :
b1111010000011100 h
b1111010000011100 8
12
0.
#4850000
b11100 y
b11100 '"
b1001101 x
b1001101 *"
b1001101 ,"
1B
1V
b11100 v
bz (
bz 4
bz :
bz h
b110001 z
b110001 &"
b101 W
b0 {
b0 /"
b110001 l
b110001 2"
b10 L
b10 U
b10 d
b1 >
b1 \
b1 j
0@
0F
0'
b0 Y
b110001 w
b1111 D
b1111 Q
b1111 ^
b1111 q
b11100 I
b11100 R
b11100 _
b11100 s
b1 u
b1 0"
b1 a
b1 -"
b1 o
b10 t
b10 1"
b0 b
b0 ."
b0 n
b11100 r
b10000011100 m
b1 X
b110001 )
b110001 5
b110001 H
b110001 g
b110001 ""
b1111010000011100 ~
b1 }
b110001 ,
b110001 6
b110001 J
b110001 e
b110001 #"
b111000 /
b101111 0
02
1.
#4900000
12
0.
